{
  "userId": "8:live:.cid.1187be25838edf03",
  "exportDate": "2020-04-05T00:38",
  "conversations": [
    {
      "id": "28:concierge",
      "displayName": "Skype",
      "version": 1583196740616.0,
      "properties": {
        "conversationblocked": false,
        "lastimreceivedtime": "2020-03-03T00:52:20.433Z",
        "consumptionhorizon": null,
        "conversationstatus": null
      },
      "threadProperties": null,
      "MessageList": [
        {
          "id": "1583196740433",
          "displayName": "Skype",
          "originalarrivaltime": "2020-03-03T00:52:20.433Z",
          "messagetype": "PopCard",
          "version": 1583196740433.0,
          "content": "[{\"contentType\":\"application/vnd.microsoft.card.popup\",\"userTagging\":{\"durationInSeconds\":1200},\"cardType\":1,\"quietCard\":false,\"iconUrl\":\"https://secure.skypeassets.com/content/dam/engagement/commerce-buyskypecreditpstntastercall/d675aeba-c75a-4c9c-89dc-06d867037b12_skype-to-phone-notifications@2x.png\",\"campaignGuid\":\"taster-call-v2-variante\",\"language\":\"en\",\"platformList\":[1,2,3,4,5,1445,1446,1447],\"validUntilTimestamp\":\"2020-03-17T00:52:17.9890425Z\",\"persistencyMode\":\"persistent\",\"content\":{\"title\":\"Enjoyed your free call?\",\"text\":\"Continue calling with Skype at affordable rates.\\n\\n\\nChoose pay-as-you-go Skype Credit or save even more with Skype Subscriptions.\",\"media\":{\"url\":\"https://secure.skypeassets.com/content/dam/engagement/commerce-buyskypecreditpstntastercall/f2ad040f-3acd-4261-9c45-8f0cce3a3113_skype-to-phone-popcard@2x.png\",\"mediaType\":\"image\",\"width\":0},\"buttons\":[{\"actionUri\":\"skype:?action=balancestate\",\"title\":\"Continue\",\"actionTarget\":\"inappbrowser\"}]},\"telemetry\":{\"campaignId\":\"taster-call\",\"variantId\":\"taster-call-variante\",\"iteration\":\"1\"},\"experimentName\":\"taster-call\"}]",
          "conversationid": "28:concierge",
          "from": "28:concierge",
          "properties": null,
          "amsreferences": null
        }
      ]
    },
    {
      "id": "48:calllogs",
      "displayName": null,
      "version": 1583192401462.0,
      "properties": {
        "conversationblocked": false,
        "lastimreceivedtime": null,
        "consumptionhorizon": null,
        "conversationstatus": null
      },
      "threadProperties": null,
      "MessageList": [
        {
          "id": "1583192588947",
          "displayName": null,
          "originalarrivaltime": "2020-03-02T23:43:08.905Z",
          "messagetype": "Text",
          "version": 1583192588947.0,
          "content": "Call Log for Call ffedc52d-37ff-4cbc-baa0-eac645d8f34b",
          "conversationid": "48:calllogs",
          "from": "8:live:.cid.1187be25838edf03",
          "properties": {
            "call-log": "{\"startTime\":\"2020-03-02T23:42:22.9058893Z\",\"connectTime\":\"2020-03-02T23:42:43.7083023Z\",\"endTime\":\"2020-03-02T23:43:08.9052034Z\",\"callDirection\":\"outgoing\",\"callType\":\"multiParty\",\"callState\":\"accepted\",\"originator\":\"8:live:.cid.1187be25838edf03\",\"target\":\"4:+16144065945\",\"originatorParticipant\":{\"id\":\"8:live:.cid.1187be25838edf03\",\"type\":\"default\",\"displayName\":\"Derelk Tingler\"},\"targetParticipant\":{\"id\":\"4:+16144065945\",\"type\":\"default\",\"displayName\":null},\"callId\":\"ffedc52d-37ff-4cbc-baa0-eac645d8f34b\",\"callAttributes\":null,\"forwardingInfo\":null,\"transferInfo\":null,\"participants\":[\"8:live:.cid.1187be25838edf03\",\"4:+16144065945\"],\"participantList\":[{\"id\":\"8:live:.cid.1187be25838edf03\",\"type\":\"default\",\"displayName\":null},{\"id\":\"4:+16144065945\",\"type\":\"default\",\"displayName\":null}],\"threadId\":\"19:36769a1f025141cb8a83979058aa1c94@thread.skype\",\"sessionType\":\"default\",\"sharedCorrelationId\":\"7bacede3-059a-4896-84c3-c510a49868ee\",\"messageId\":null}"
          },
          "amsreferences": null
        },
        {
          "id": "1583192401462",
          "displayName": null,
          "originalarrivaltime": "2020-03-02T23:40:01.416Z",
          "messagetype": "Text",
          "version": 1583192401462.0,
          "content": "Call Log for Call e91c51e8-b3fe-48b9-8b6f-2af44f17b809",
          "conversationid": "48:calllogs",
          "from": "8:live:.cid.1187be25838edf03",
          "properties": {
            "call-log": "{\"startTime\":\"2020-03-02T23:39:43.2652367Z\",\"connectTime\":null,\"endTime\":\"2020-03-02T23:40:01.416718Z\",\"callDirection\":\"outgoing\",\"callType\":\"twoParty\",\"callState\":\"missed\",\"originator\":\"8:live:.cid.1187be25838edf03\",\"target\":\"4:+13046100843\",\"originatorParticipant\":{\"id\":\"8:live:.cid.1187be25838edf03\",\"type\":\"default\",\"displayName\":\"Derelk Tingler\"},\"targetParticipant\":{\"id\":\"4:+13046100843\",\"type\":\"default\",\"displayName\":null},\"callId\":\"e91c51e8-b3fe-48b9-8b6f-2af44f17b809\",\"callAttributes\":null,\"forwardingInfo\":null,\"transferInfo\":null,\"participants\":null,\"participantList\":null,\"threadId\":null,\"sessionType\":\"default\",\"messageId\":null}"
          },
          "amsreferences": null
        },
        {
          "id": "1583088705256",
          "displayName": null,
          "originalarrivaltime": "2020-03-01T18:51:45.213Z",
          "messagetype": "Text",
          "version": 1583088705256.0,
          "content": "Call Log for Call c6cb86d4-6f0f-408a-99fa-4979c8ef4054",
          "conversationid": "48:calllogs",
          "from": "8:live:.cid.1187be25838edf03",
          "properties": {
            "call-log": "{\"startTime\":\"2020-03-01T18:51:44.7292873Z\",\"connectTime\":null,\"endTime\":\"2020-03-01T18:51:45.2137159Z\",\"callDirection\":\"outgoing\",\"callType\":\"twoParty\",\"callState\":\"missed\",\"originator\":\"8:live:.cid.1187be25838edf03\",\"target\":\"4:+151789\",\"originatorParticipant\":{\"id\":\"8:live:.cid.1187be25838edf03\",\"type\":\"default\",\"displayName\":\"Derelk Tingler\"},\"targetParticipant\":{\"id\":\"4:+151789\",\"type\":\"default\",\"displayName\":null},\"callId\":\"c6cb86d4-6f0f-408a-99fa-4979c8ef4054\",\"callAttributes\":null,\"forwardingInfo\":null,\"transferInfo\":null,\"participants\":null,\"participantList\":null,\"threadId\":null,\"sessionType\":\"default\",\"messageId\":null}"
          },
          "amsreferences": null
        },
        {
          "id": "1583079431839",
          "displayName": null,
          "originalarrivaltime": "2020-03-01T16:17:11.775Z",
          "messagetype": "Text",
          "version": 1583079431839.0,
          "content": "Call Log for Call e2d08c3e-dd76-4859-8c69-2b4c535cf5ee",
          "conversationid": "48:calllogs",
          "from": "8:live:.cid.1187be25838edf03",
          "properties": {
            "call-log": "{\"startTime\":\"2020-03-01T16:17:10.3227259Z\",\"connectTime\":null,\"endTime\":\"2020-03-01T16:17:11.7758502Z\",\"callDirection\":\"outgoing\",\"callType\":\"twoParty\",\"callState\":\"missed\",\"originator\":\"8:live:.cid.1187be25838edf03\",\"target\":\"4:+16144065945\",\"originatorParticipant\":{\"id\":\"8:live:.cid.1187be25838edf03\",\"type\":\"default\",\"displayName\":\"Derelk Tingler\"},\"targetParticipant\":{\"id\":\"4:+16144065945\",\"type\":\"default\",\"displayName\":null},\"callId\":\"e2d08c3e-dd76-4859-8c69-2b4c535cf5ee\",\"callAttributes\":null,\"forwardingInfo\":null,\"transferInfo\":null,\"participants\":null,\"participantList\":null,\"threadId\":null,\"sessionType\":\"default\",\"messageId\":null}"
          },
          "amsreferences": null
        },
        {
          "id": "1583079127403",
          "displayName": null,
          "originalarrivaltime": "2020-03-01T16:12:06.86Z",
          "messagetype": "Text",
          "version": 1583079127403.0,
          "content": "Call Log for Call e9462276-866e-4291-a756-a8a67f1581a3",
          "conversationid": "48:calllogs",
          "from": "8:live:.cid.1187be25838edf03",
          "properties": {
            "call-log": "{\"startTime\":\"2020-03-01T16:12:05.3137429Z\",\"connectTime\":null,\"endTime\":\"2020-03-01T16:12:06.8604464Z\",\"callDirection\":\"outgoing\",\"callType\":\"twoParty\",\"callState\":\"missed\",\"originator\":\"8:live:.cid.1187be25838edf03\",\"target\":\"4:+13046100843\",\"originatorParticipant\":{\"id\":\"8:live:.cid.1187be25838edf03\",\"type\":\"default\",\"displayName\":\"live:.cid.1187be25838edf03\"},\"targetParticipant\":{\"id\":\"4:+13046100843\",\"type\":\"default\",\"displayName\":null},\"callId\":\"e9462276-866e-4291-a756-a8a67f1581a3\",\"callAttributes\":null,\"forwardingInfo\":null,\"transferInfo\":null,\"participants\":null,\"participantList\":null,\"threadId\":null,\"sessionType\":\"default\",\"messageId\":null}"
          },
          "amsreferences": null
        }
      ]
    },
    {
      "id": "4:+13046100843",
      "displayName": "3046100843",
      "version": 1583203725027.0,
      "properties": {
        "conversationblocked": false,
        "lastimreceivedtime": null,
        "consumptionhorizon": "1583192402102;1583192402201;5180498270167606445",
        "conversationstatus": null
      },
      "threadProperties": null,
      "MessageList": [

      ]
    },
    {
      "id": "4:+16144065945",
      "displayName": null,
      "version": 1583203717808.0,
      "properties": {
        "conversationblocked": false,
        "lastimreceivedtime": null,
        "consumptionhorizon": "1583192564820;1583192564941;3619651429768439337",
        "conversationstatus": null
      },
      "threadProperties": null,
      "MessageList": [

      ]
    },
    {
      "id": "19:36769a1f025141cb8a83979058aa1c94@thread.skype",
      "displayName": "live:.cid.1187be25838edf03, +13046100843, +16144065945",
      "version": 1583203702402.0,
      "properties": {
        "conversationblocked": false,
        "lastimreceivedtime": "2020-03-02T23:42:57.868Z",
        "consumptionhorizon": "1583192592805;1583192592930;4682675325778946216",
        "conversationstatus": null
      },
      "threadProperties": {
        "membercount": 3,
        "members": "[\"8:live:.cid.1187be25838edf03\",\"4:+13046100843\",\"4:+16144065945\"]",
        "topic": "live:.cid.1187be25838edf03, +13046100843, +16144065945"
      },
      "MessageList": [

      ]
    },
    {
      "id": "19:ffedc52d37ff4cbcbaa0eac645d8f34b@cast.skype",
      "displayName": "live:.cid.1187be25838edf03",
      "version": 1583192589291.0,
      "properties": {
        "conversationblocked": false,
        "lastimreceivedtime": "2020-03-02T23:43:09.130Z",
        "consumptionhorizon": "1583192589131;1583192589183;15175716487593824755",
        "conversationstatus": null
      },
      "threadProperties": {
        "membercount": 1,
        "members": "[\"8:live:.cid.1187be25838edf03\"]",
        "topic": "live:.cid.1187be25838edf03"
      },
      "MessageList": [
        {
          "id": "1583192589131",
          "displayName": null,
          "originalarrivaltime": "2020-03-02T23:43:07.999Z",
          "messagetype": "RichText",
          "version": 1583192589131.0,
          "content": "Derelk Tingler took a snapshot<c_i id=\"ffedc52d-37ff-4cbc-baa0-eac645d8f34b\" style=\"2\"></c_i>",
          "conversationid": "19:ffedc52d37ff4cbcbaa0eac645d8f34b@cast.skype",
          "from": "8:live:.cid.1187be25838edf03",
          "properties": null,
          "amsreferences": null
        },
        {
          "id": "1583192589130",
          "displayName": null,
          "originalarrivaltime": "2020-03-02T23:43:09.13Z",
          "messagetype": "ThreadActivity/AddMember",
          "version": 1583192589130.0,
          "content": "<addmember><eventtime>1583192589130</eventtime><initiator>8:live:.cid.1187be25838edf03</initiator><target>8:live:.cid.1187be25838edf03</target></addmember>",
          "conversationid": "19:ffedc52d37ff4cbcbaa0eac645d8f34b@cast.skype",
          "from": "19:ffedc52d37ff4cbcbaa0eac645d8f34b@cast.skype",
          "properties": null,
          "amsreferences": null
        },
        {
          "id": "1583192588974",
          "displayName": null,
          "originalarrivaltime": "2020-03-02T23:43:08.974Z",
          "messagetype": "ThreadActivity/HistoryDisclosedUpdate",
          "version": 1583192588974.0,
          "content": "<historydisclosedupdate><eventtime>1583192589130</eventtime><initiator>8:live:.cid.1187be25838edf03</initiator><value>True</value></historydisclosedupdate>",
          "conversationid": "19:ffedc52d37ff4cbcbaa0eac645d8f34b@cast.skype",
          "from": "19:ffedc52d37ff4cbcbaa0eac645d8f34b@cast.skype",
          "properties": null,
          "amsreferences": null
        }
      ]
    }
  ]
}
